%YAML 1.1
%TAG !u! tag:unity3d.com,2011:
--- !u!1386491679 &1
PresetManager:
  m_ObjectHideFlags: 0
  m_DefaultList:
  - type:
      m_NativeTypeID: 1006
      m_ManagedTypePPtr: {fileID: 0}
      m_ManagedTypeFallback: 
    defaultPresets:
    - m_Preset: {fileID: 2655988077585873504, guid: 9f9f38a54ccf9044a8218c9f476a253d,
        type: 2}
